# compile verilog/system verilog design source files
verilog xil_defaultlib  \
"ALU_TB_func_synth.v" \

sv xil_defaultlib  \
"../../../../../Laboratorio 3.srcs/sim_1/new/ALU_TB.sv" \

# Do not sort compile order
nosort
