3 3 0 0 1 0 1 1 1 0 0 0 0 3 3 0
3 3 4 0 1 1 1 1 1 1 0 0 4 3 3 0
0 4 4 4 0 1 2 3 2 1 0 4 4 4 0 0
0 0 4 4 4 3 3 3 3 3 4 4 4 0 0 0
0 0 0 4 4 4 3 3 3 4 4 4 0 0 0 0
0 0 0 0 4 4 4 4 4 4 4 0 0 0 0 0
0 0 0 0 0 4 4 4 4 4 0 0 0 0 0 0
0 0 0 0 0 4 4 4 4 4 0 0 0 0 0 0
0 0 0 0 0 4 4 4 4 4 0 0 0 0 0 0
0 0 0 0 4 4 4 4 4 4 4 0 0 0 0 0
0 0 0 5 5 5 5 5 5 5 5 5 0 0 0 0
0 0 5 5 5 5 5 5 5 5 5 5 5 0 0 0
0 5 5 5 5 0 0 0 0 0 5 5 5 5 0 0
0 6 6 5 0 0 0 0 0 0 0 5 6 6 0 0
6 6 6 0 0 0 0 0 0 0 0 0 6 6 6 0
6 6 6 0 0 0 0 0 0 0 0 0 6 6 6 0