//memory_initialization_radix=16;
//memory_initialization_vector=
1 1 1 1 1 0 0 0 0 1 1 1 1 1 1 1
1 1 1 0 0 2 2 2 2 0 0 1 1 1 1 1
1 1 0 B B B B B 2 2 2 0 1 1 1 1
1 0 B B B B B B B 2 2 2 0 1 1 1
1 0 F B F B B B B B 2 2 0 1 0 1
0 2 F B F B B B B B 2 2 0 0 F 0
0 2 F B F B B B B B 2 0 F F F 0
0 2 B B B B B B B B 2 0 B B B 0
0 2 2 B B B B B B 2 2 2 0 0 B 0
1 0 2 2 B B B B 2 2 2 2 0 1 0 1
1 0 2 2 2 2 2 2 2 2 2 2 0 1 1 1
1 1 0 2 2 2 2 2 2 2 2 0 1 1 1 1
1 1 1 0 2 0 0 0 0 2 0 1 1 1 1 1
1 1 1 1 0 0 0 0 0 0 1 1 1 1 1 1
1 1 1 1 0 0 0 0 0 0 1 1 1 1 1 1
1 1 1 1 1 0 0 0 0 1 1 1 1 1 1 1